<?xml version="1.0" encoding="UTF-8" standalone="no"?>
<!-- Created with Inkscape (http://www.inkscape.org/) -->

<svg
   xmlns:dc="http://purl.org/dc/elements/1.1/"
   xmlns:cc="http://creativecommons.org/ns#"
   xmlns:rdf="http://www.w3.org/1999/02/22-rdf-syntax-ns#"
   xmlns:svg="http://www.w3.org/2000/svg"
   xmlns="http://www.w3.org/2000/svg"
   xmlns:sodipodi="http://sodipodi.sourceforge.net/DTD/sodipodi-0.dtd"
   xmlns:inkscape="http://www.inkscape.org/namespaces/inkscape"
   version="1.1"
   id="svg2"
   width="1920"
   height="1090"
   viewBox="0 0 1920 1090"
   sodipodi:docname="home-banner.svg"
   inkscape:export-filename="/home/jcougnoux/eventure/img/banner/home-banner.png"
   inkscape:export-xdpi="500"
   inkscape:export-ydpi="500"
   inkscape:version="0.92.1 r15371">
  <metadata
     id="metadata8">
    <rdf:RDF>
      <cc:Work
         rdf:about="">
        <dc:format>image/svg+xml</dc:format>
        <dc:type
           rdf:resource="http://purl.org/dc/dcmitype/StillImage" />
        <dc:title></dc:title>
      </cc:Work>
    </rdf:RDF>
  </metadata>
  <defs
     id="defs6" />
  <sodipodi:namedview
     pagecolor="#ffffff"
     bordercolor="#666666"
     borderopacity="1"
     objecttolerance="10"
     gridtolerance="10"
     guidetolerance="10"
     inkscape:pageopacity="0"
     inkscape:pageshadow="2"
     inkscape:window-width="956"
     inkscape:window-height="1041"
     id="namedview4"
     showgrid="false"
     inkscape:zoom="0.21651376"
     inkscape:cx="881.48305"
     inkscape:cy="545"
     inkscape:window-x="960"
     inkscape:window-y="37"
     inkscape:window-maximized="0"
     inkscape:current-layer="svg2" />
  <path
     inkscape:connector-curvature="0"
     id="path14"
     style="fill:#708894;fill-opacity:1;fill-rule:nonzero;stroke:none;stroke-width:1.92886841"
     d="M 1e-5,1090 H 1920 V 0 H 1e-5 Z" />
  <g
     transform="matrix(1.1104546,0,0,-1.0469654,543.57953,937.36016)"
     id="g4605">
    <text
       y="-103.21657"
       x="34.363083"
       transform="scale(1.0024677,-0.99753838)"
       style="font-variant:normal;font-weight:bold;font-size:91.96303558px;font-family:'Amatic SC';-inkscape-font-specification:AmaticSC-Bold;writing-mode:lr-tb;fill:#ffffff;fill-opacity:1;fill-rule:nonzero;stroke:none;stroke-width:0.99753839"
       id="text40">
      <tspan
         style="stroke-width:0.99753839"
         x="34.363083 76.022339 96.805984 140.85628 161.63992 196.31 231.16397 257.28149 283.49094 314.48248 347.58917 391.63947"
         y="-103.21657"
         sodipodi:role="line"
         id="tspan38">Mini-DebConf</tspan>
    </text>
    <text
       y="-109.62553"
       x="452.06332"
       transform="scale(1.0024677,-0.99753838)"
       style="font-variant:normal;font-size:79.99996948px;font-family:CairoFont-1;-inkscape-font-specification:CairoFont-1-0;writing-mode:lr-tb;fill:#d70751;fill-opacity:1;fill-rule:nonzero;stroke:none;stroke-width:0.99753839"
       id="text44">
      <tspan
         x="452.06332 504.38333 534.30328 558.06329 581.18329 606.78333 624.46326 650.9433 677.34326"
         y="-109.62553"
         sodipodi:role="line"
         id="tspan42"
         style="font-style:normal;font-variant:normal;font-weight:normal;font-stretch:normal;font-family:FabfeltScript;-inkscape-font-specification:FabfeltScript;stroke-width:0.99753839">Marseille</tspan>
    </text>
    <path
       d="m 323.117,230.758 c 0.645,0.625 1.356,1.242 0,2.18 -1.996,0.863 -2.23,4.414 1.363,3.808 7.555,5.676 18.161,0.438 16.567,-3.926 l 6.363,0.258 c 1.996,2.586 0.278,1.656 0.43,4.238 0.969,1.649 2.726,0.789 4.211,2.422 -0.375,3.114 0.851,4.598 -1.199,5.895 1.336,0.867 1.855,2.14 1.39,3.906 l 22.594,6.535 0.543,0.817 -2.176,0.543 2.723,2.722 0.273,1.906 1.086,0.817 0.547,7.621 8.438,3.539 c -1.532,2.234 -0.082,3.84 1.906,3.539 0.304,1.004 -0.473,1.891 -1.297,2.77 1.098,0.144 1.976,0.437 2.207,1.168 6.336,1.629 7.496,1.863 10.25,4.226 3.496,0.332 0.867,1.039 2.047,2.403 l 1.539,-0.016 0.031,-1.504 2.449,0.543 0.082,5.762 0.946,-5.489 14.234,0.512 0.176,6.5 c -0.004,0.965 -0.891,1.594 -1.906,2.18 0.761,0.355 0.492,0.887 0.543,1.359 l 1.089,0.274 c -0.23,8.757 -0.453,6.351 -0.273,9.527 0.234,1.09 -0.785,1.504 -1.613,2.594 l 1.343,0.129 5.122,9.828 8.089,0.004 c -0.148,4.367 1.692,10.097 -0.961,12.761 1.227,2.235 -0.195,3.266 -0.339,4.93 2.339,0.781 2.031,3.07 3.457,5.219 0.117,0.875 0.992,0.082 1.168,0.816 2.211,9.199 7.191,12.781 12.589,14.348 1.247,4.461 0.598,7.656 0.817,11.433 h -1.36 l 0.079,0.688 1.199,0.145 0.625,1.617 0.738,-1.617 1.375,-0.29 0.129,-0.765 -1.152,-0.051 c -0.719,-3.59 -0.465,-9.609 1.379,-10.902 12.097,-6.176 11.39,-14.348 15.835,-20.77 l -0.082,27.543 c 0.52,3.024 -2.148,3.543 -3.265,5.281 l 1.793,1.024 c -0.16,1.551 1.367,3.172 -0.961,4.633 l 1.715,0.558 c -0.45,1.524 -0.028,3.168 -1.375,4.309 0.945,0.726 2.914,1.57 0.734,1.937 -0.297,0.805 -0.711,2.508 -1.715,2.367 1.492,-0.742 3.086,-1.351 3.324,0.571 0.086,0.683 1.579,-1.262 2.504,-0.938 0.043,-1.633 0.164,-3 -0.289,-6.355 2,-1.086 2.797,-0.844 3.539,-0.547 0.84,0.453 1.977,1.437 1.301,1.891 2.008,1.918 0.93,3.418 0.156,5.218 2.512,1.641 0.024,2.461 0.082,3.813 0.567,1.156 1.317,0.332 2,0.207 0.692,4.676 0.301,7.73 0,10.922 l -0.781,0.621 c -0.25,1.074 -0.008,2.051 0.383,2.996 1.391,0.324 2.172,1.152 2.801,2.113 1.683,3.086 1.054,3.789 0.32,6.035 0.93,0.551 0.141,1.403 0.383,2.692 2.176,1.312 0.898,8.254 1.203,12.09 -1.371,0.281 -1.766,2.425 -1.469,8.089 0.481,2.075 1.727,3.313 2.207,4.879 0.368,2.079 -0.625,4.211 2.047,4.403 2.067,-0.977 0.774,-3.114 1.953,-4.836 2.637,1.297 4.403,-0.578 5.11,-3.696 -0.672,-0.398 -1.356,-0.699 -2.153,-0.21 -0.172,-1.34 0.078,-2.868 0.664,-4.082 0.204,-0.551 1.094,-0.68 -0.566,-1.461 0.402,-4.196 1.898,-8.586 0.32,-12.434 l -1.39,0.625 c -0.078,-1.473 -0.61,-2.816 0.129,-4.52 0.511,-4.058 0.144,-8.054 4.246,-10.55 -0.012,-0.864 0.097,-1.746 -0.739,-2.485 l 0.063,-8.355 c 0.351,-1.899 0.055,-3.656 1.441,-5.785 0.075,-2.629 0.18,-5.25 -0.242,-8.004 h 5.594 c 0.781,2.914 -1.395,4.941 -0.18,8.453 l 1.153,0.223 c -0.137,2.8 2.644,0.136 4.515,1.203 0.145,-2.043 -1.058,-2.836 -2.5,-3.711 l 2.34,-0.817 c -0.203,-1.039 0.313,-1.711 -0.852,-2.578 -0.925,-1.437 0.731,-2.234 0.133,-4.035 -1.465,-2.406 0.586,-4.027 1.844,-4.824 -1.508,-1.535 -3.531,-2.926 -2.984,-5.199 0.109,-6.551 -0.297,-14.887 0.035,-19.649 1.929,-2.66 1.308,-2.308 -0.305,-5.328 l 0.754,-29.965 2.879,-0.254 -0.078,-4.34 1.023,-0.285 0.199,-2.449 -1.093,0.059 c -0.528,-9.332 -0.18,-21.114 -0.082,-30.965 l 4.277,0.047 0.125,-2.258 21.121,-0.625 c 4.828,1.453 10.102,1.781 15.086,2.355 l 2.766,0.188 -0.207,2.07 2.113,-0.097 0.351,-1.969 c 9.168,0.82 7.582,1.789 10.813,2.832 l 6.484,0.004 4.403,4.847 c 0.379,1.399 -1.09,4.481 1.922,3.477 l 18.222,0.062 c 0.09,-14.597 2.508,-28.086 9.957,-35.941 0.91,3.023 3.18,2.82 4.645,0.922 5.91,3.613 9.179,2.836 12.949,-1.469 1.32,0.207 1.895,-0.187 2.449,-1.973 4.383,-0.8 4.614,-0.699 5.887,-4.832 3.082,0.622 1.937,-0.898 0.101,-4.968 4.266,1.23 6.504,1.882 7.247,-0.032 0.629,-0.96 -0.008,-3.539 2.925,-1.531 1.883,0.18 1.926,-1.363 2.45,-2.453 25.769,-11.785 26.695,-23.383 26.488,-27.219 h -385.25 c 12.73,23.504 12.062,17.614 39.195,25.317 z"
       style="fill:#ffffff;fill-opacity:1;fill-rule:nonzero;stroke:none"
       id="path48"
       inkscape:connector-curvature="0" />
    <g
       id="g5185"
       transform="matrix(4.6461105,0,0,4.6461105,66.717892,166.08979)">
      <path
         d="m 48.684,53.547 c -1.582,-0.024 0.296,-0.817 2.363,-1.129 0.57,0.441 1.086,0.891 1.547,1.328 C 51.309,53.434 50,53.43 48.684,53.547"
         style="fill:#d70751;fill-opacity:1;fill-rule:nonzero;stroke:none"
         id="path4592"
         inkscape:connector-curvature="0" />
      <path
         d="m 57.164,55.664 c 0.941,1.293 1.629,2.715 1.867,4.188 -0.211,-1.043 -0.777,-1.954 -1.312,-2.907 -2.953,-1.859 -0.281,1.106 -0.004,2.231 -3.172,-4 -0.434,-2.399 -0.551,-3.512"
         style="fill:#d70751;fill-opacity:1;fill-rule:nonzero;stroke:none"
         id="path4594"
         inkscape:connector-curvature="0" />
      <path
         d="m 60.297,63.809 c 0.187,2.843 -0.563,1.945 -0.817,0.855 0.297,-0.148 0.532,-2.008 0.817,-0.855"
         style="fill:#d70751;fill-opacity:1;fill-rule:nonzero;stroke:none"
         id="path4596"
         inkscape:connector-curvature="0" />
      <path
         d="m 42.691,102.695 c 0.84,-0.144 1.825,-0.265 1.684,-0.461 0.922,0.196 1.133,0.383 -1.684,0.461"
         style="fill:#d70751;fill-opacity:1;fill-rule:nonzero;stroke:none"
         id="path4598"
         inkscape:connector-curvature="0" />
      <path
         d="m 44.375,102.234 -0.594,-0.125 0.555,0.051 0.039,0.074"
         style="fill:#d70751;fill-opacity:1;fill-rule:nonzero;stroke:none"
         id="path4600"
         inkscape:connector-curvature="0" />
      <path
         d="m 70.672,62.727 c 0.094,-2.555 -0.746,-3.793 -1.508,-5.993 l -1.363,-0.675 c -1.117,-2.176 0.113,-1.383 -0.696,-3.11 -1.742,-1.547 -5.289,-4.847 -6.425,-5.156 -0.828,0.023 0.562,0.98 0.742,1.359 -2.336,-1.601 -1.875,-2.41 -5.445,-3.386 l -0.106,0.23 c -8.809,-4.141 -21.047,4.074 -20.883,15.277 -0.097,-0.707 -0.269,-0.527 -0.465,-0.816 -0.453,5.762 2.665,11.555 7.922,13.918 5.141,2.547 11.172,1.5 14.852,-1.93 -2.02,2.649 -6.047,5.453 -10.82,5.196 -4.672,-0.071 -9.047,-3.047 -10.512,-6.274 -2.391,-1.504 -2.672,-5.808 -3.711,-6.597 -1.41,-10.325 2.637,-14.778 9.484,-20.024 1.074,-0.726 0.301,-0.836 0.446,-1.391 -2.274,1.067 -4.356,2.676 -6.071,4.641 0.91,-1.332 1.895,-2.621 3.16,-3.637 -2.144,0.727 -5.007,5.196 -5.843,5.375 3.691,-6.617 14.988,-11.601 20.91,-9.129 -2.738,-0.097 -6.219,-0.05 -9.289,1.083 -1.297,0.667 -3.055,2.042 -2.739,2.296 8.075,-3.019 16.415,-2.277 23.399,3.321 1.777,1.383 3.719,3.742 4.281,3.765 -0.844,-1.265 0.145,-0.609 -0.504,-1.73 1.77,2.859 -0.769,1.164 1.828,4.933 l 0.961,-1.324 c -0.359,2.375 2.946,5.25 2.61,9 0.758,1.145 0.847,-1.234 0.039,-3.871 1.117,2.93 0.297,3.402 0.582,5.809 0.312,-0.809 0.715,-1.672 0.926,-2.528 -0.727,2.825 0.746,4.762 1.105,6.403 -0.355,0.164 -1.117,-1.246 -1.289,2.093 0.023,1.45 0.398,0.762 0.543,1.118 -0.281,0.164 -1.027,1.277 -1.481,3.41 0.325,0.504 0.879,-1.301 1.329,-1.375 -0.289,1.699 -0.789,2.988 -0.809,4.293 -1.309,2.738 -0.465,-0.367 -1.523,1.172 -1.399,4.351 1.156,1.011 1.328,2.988 2.113,-3.059 3.316,-7.809 3.871,-9.777 -0.422,2.402 -1.102,4.718 -1.938,6.968 0.645,-0.273 -1.031,4.93 0.836,1.485 -1.996,7.347 -8.543,14.211 -14.566,17.429 0.734,-0.679 1.668,-1.519 1.336,-1.656 -2.996,1.785 -2.473,1.926 -2.903,2.68 -2.437,0.988 -2.597,-0.086 -4.211,-0.004 -4.597,2.437 -5.488,2.176 -9.722,3.711 l 0.195,-0.902 c -3.047,1.015 -3.551,-0.383 -6.844,0 -0.199,0.152 1.059,0.562 2.09,0.714 -2.945,-0.386 -2.808,0.582 -5.691,-0.113 0.711,0.504 1.461,0.832 2.222,1.258 -2.406,-0.149 -5.738,-1.402 -4.71,-0.258 -3.914,-1.754 -10.875,-4.207 -14.778,-7.867 l -0.125,0.82 C 18.91,93.797 12.895,89.531 12.418,86.746 l -0.48,-0.105 C 11.008,85.066 10.406,83.273 9.664,81.656 8.449,79.578 7.883,80.852 8.055,80.531 5.66,75.676 4.469,71.59 3.441,68.246 4.172,67.152 3.457,61.656 3.734,57.262 2.531,35.535 18.98,14.438 36.961,9.578 c 2.637,-0.949 6.551,-0.914 9.887,-1.004 -3.934,1.117 -4.442,0.59 -8.27,1.93 -2.766,1.301 -3.371,2.785 -5.328,4.488 l 0.773,-1.375 c -3.839,1.36 -2.234,1.684 -5.355,2.672 l 0.828,1.082 c -1.246,0.094 -3.293,2.094 -3.855,3.207 l -1.364,-0.055 c -1.636,2.02 -2.507,3.473 -2.441,4.602 L 21.395,24.34 c -0.497,0.851 -6.02,7.57 -3.153,6.008 -0.535,0.48 -1.242,0.789 -2.008,2.183 l 0.582,0.664 c -1.375,1.774 -2.535,4.051 -2.445,4.805 0.734,-0.996 1.242,-1.18 1.746,-1.352 -3.476,8.633 -3.672,0.481 -6.305,8.793 l 0.551,0.043 c -0.425,0.641 -0.683,1.34 -1.027,2.028 l 0.242,2.418 c -2.504,2.89 -0.695,12.312 -0.336,17.476 0.25,2.102 2.09,4.344 3.488,7.844 l -0.851,0.148 c 1.633,2.84 9.309,11.422 12.863,10.981 1.723,2.164 -0.34,0.008 -0.676,0.551 3.782,3.914 4.973,2.765 7.524,3.468 2.758,1.637 -2.36,-0.632 -1.055,0.625 4.762,1.219 3.375,2.766 9.582,3.383 0.656,-0.375 -1.519,-0.574 -2.066,-1.058 3.969,1.941 12.554,1.5 18.129,-1.075 6.468,-3.027 13.738,-11.964 14.031,-20.378 l 0.324,-0.09 c -0.164,-3.34 0.512,-7.211 -0.66,-10.754 l 0.797,1.676"
         style="fill:#d70751;fill-opacity:1;fill-rule:nonzero;stroke:none"
         id="path4602"
         inkscape:connector-curvature="0" />
      <path
         d="M 31.438,51.375 31.215,50.27 c 1.039,-1.415 1.863,-2.938 3.187,-4.036 -0.953,1.856 -1.664,2.621 -2.964,5.141"
         style="fill:#d70751;fill-opacity:1;fill-rule:nonzero;stroke:none"
         id="path4604"
         inkscape:connector-curvature="0" />
      <path
         d="m 33.891,51.473 c -0.547,0.609 -0.875,1.339 -1.239,2.07 0.348,-1.281 1.063,-2.387 1.727,-3.504 l -0.488,1.434"
         style="fill:#d70751;fill-opacity:1;fill-rule:nonzero;stroke:none"
         id="path4606"
         inkscape:connector-curvature="0" />
      <path
         d="m 77.336,60.918 -0.234,-0.582 c -0.422,-3.027 -1.344,-6.02 -2.754,-8.789 1.558,2.926 2.562,6.125 2.988,9.371"
         style="fill:#d70751;fill-opacity:1;fill-rule:nonzero;stroke:none"
         id="path4608"
         inkscape:connector-curvature="0" />
      <path
         d="m 43.004,103.457 c 1.07,0.387 2.629,0.215 3.766,0.469 -1.481,-0.121 -2.95,-0.196 -4.407,-0.383 l 0.641,-0.086"
         style="fill:#d70751;fill-opacity:1;fill-rule:nonzero;stroke:none"
         id="path4610"
         inkscape:connector-curvature="0" />
      <path
         d="M 5.5,83.512 C 5.742,81.234 3.785,80.348 5.934,81.852 7.086,84.449 5.48,82.566 5.5,83.512"
         style="fill:#d70751;fill-opacity:1;fill-rule:nonzero;stroke:none"
         id="path4612"
         inkscape:connector-curvature="0" />
      <path
         d="m 2.969,72.965 c 0.496,1.523 0.59,2.426 0.777,3.316 C 2.379,74.527 3.113,74.152 2.969,72.965"
         style="fill:#d70751;fill-opacity:1;fill-rule:nonzero;stroke:none"
         id="path4614"
         inkscape:connector-curvature="0" />
    </g>
  </g>
</svg>
